%YAML 1.1
%TAG !u! tag:unity3d.com,2011:
--- !u!21 &2100000
Material:
  serializedVersion: 6
  m_ObjectHideFlags: 0
  m_CorrespondingSourceObject: {fileID: 0}
  m_PrefabInstance: {fileID: 0}
  m_PrefabAsset: {fileID: 0}
  m_Name: Shader Graphs_CartoonWater
  m_Shader: {fileID: -6465566751694194690, guid: ca632f1426cf6bf4d9b6a86e0912308d,
    type: 3}
  m_ShaderKeywords: 
  m_LightmapFlags: 4
  m_EnableInstancingVariants: 0
  m_DoubleSidedGI: 0
  m_CustomRenderQueue: -1
  stringTagMap: {}
  disabledShaderPasses: []
  m_SavedProperties:
    serializedVersion: 3
    m_TexEnvs: []
    m_Floats:
    - Vector1_3246CA7C: 1
    - Vector1_AAF56189: 8.9
    - Vector1_B2F4D643: 6.22
    m_Colors:
    - Color_1E9A5299: {r: 0, g: 0.4106255, b: 1, a: 0}
    - Color_2B67DFCA: {r: 3.523293, g: 3.523293, b: 3.523293, a: 0}
